<?xml version="1.0" encoding="utf-8"?>
<!-- Generator: Adobe Illustrator 19.0.0, SVG Export Plug-In . SVG Version: 6.00 Build 0)  -->
<svg version="1.1" id="Layer_1" xmlns="http://www.w3.org/2000/svg" xmlns:xlink="http://www.w3.org/1999/xlink" x="0px" y="0px"
	 viewBox="-49 141 512 512" style="enable-background:new -49 141 512 512;" xml:space="preserve">
<style type="text/css">
	.st0{fill:#424244;}
</style>
<g>
	<g>
		<g>
			<g>
				<path class="st0" d="M452.3,503.2h-10.7v-10.7c0-41.2-33.5-74.7-74.7-74.7s-74.7,33.5-74.7,74.7v10.7h-10.7
					c-5.9,0-10.7,4.8-10.7,10.7v128c0,5.9,4.8,10.7,10.7,10.7h170.7c5.9,0,10.7-4.8,10.7-10.7v-128C463,508,458.2,503.2,452.3,503.2
					z M377.7,585.3v14c0,5.9-4.8,10.7-10.7,10.7s-10.7-4.8-10.7-10.7v-14c-6.3-3.7-10.7-10.3-10.7-18c0-11.8,9.6-21.3,21.3-21.3
					s21.3,9.6,21.3,21.3C388.3,575,383.9,581.6,377.7,585.3z M420.3,503.2H313.7v-10.7c0-29.4,23.9-53.3,53.3-53.3
					c29.4,0,53.3,23.9,53.3,53.3V503.2z"/>
				<path class="st0" d="M315.9,411.7c1.9-1.2,3.3-2.9,4.1-5c1.5-3.7,2.8-7.3,3.7-10.6c12.6-3.1,22.5-13.7,24.1-27.1l5.3-42.7
					c1.1-9-1.6-18.1-7.6-24.9c-3.5-4-8-7-12.8-8.9l2-40.2l8-8c12-12.8,22-34.7,1.2-66.5c-16-24.4-43.2-36.8-80.8-36.8
					c-14.8,0-49,0-80.9,21.4C91.4,164.3,79,206.5,79,247.7c0,9.6,2.3,31.1,3.9,44.2c-5.5,1.7-10.5,4.9-14.3,9.3
					c-6.1,6.9-8.9,16-7.8,25.2l5.3,42.7c1.7,13.9,12.3,24.9,25.6,27.5c4.4,29.3,18.6,58.1,39.2,79.4l-7.4,29.7L41.8,526
					C-11.7,539.4-49,587.2-49,642.3c0,2.8,1.1,5.5,3.1,7.6c2,2,4.7,3.1,7.6,3.1c0,0,0,0,0,0l277.3-0.4c5.9,0,10.6-4.8,10.6-10.7
					v-128c0-11.8,6.6-22.6,17.3-28.2c3-1.6,5.1-4.5,5.6-7.8C276.8,450.8,292.5,426.7,315.9,411.7z"/>
			</g>
		</g>
	</g>
</g>
</svg>
